<?xml version="1.0" encoding="UTF-8" standalone="no"?>
<svg
   width="64"
   height="64"
   version="1.1"
   id="svg4"
   xmlns="http://www.w3.org/2000/svg"
   xmlns:svg="http://www.w3.org/2000/svg">
  <path
     d="m 29.367321,38.633596 v 15.314723 c 0,2.209304 -1.790308,3.999734 -3.999777,3.999734 -2.209329,0 -3.999779,-1.790289 -3.999779,-3.999734 V 48.290257 L 6.829052,62.828813 C 6.048068,63.609235 5.0237031,64 4.0004875,64 2.9772861,64 1.9529213,63.609235 1.1719231,62.82826 c -1.56256411,-1.562547 -1.56256411,-4.094945 0,-5.656357 L 15.710636,42.633345 h -5.658121 c -2.2093289,0 -3.9997786,-1.790289 -3.9997786,-3.999734 0,-2.209447 1.7903077,-3.999736 3.9997786,-3.999736 h 15.314886 c 2.209328,-5.67e-4 4.000204,1.790856 4.000204,4.000161 z M 62.829349,1.1719104 c -1.562564,-1.5625472 -4.09499,-1.5625472 -5.656418,0 L 42.634216,15.710467 v -5.658061 c 0,-2.2093045 -1.790307,-3.9997349 -3.999776,-3.9997349 -2.209329,0 -3.99978,1.7902884 -3.99978,3.9997349 v 15.314722 c 0,2.209304 1.790308,3.999735 3.99978,3.999735 h 15.314887 c 2.209328,0 3.999777,-1.790288 3.999777,-3.999735 0,-2.209447 -1.790307,-3.999735 -3.999777,-3.999735 H 48.291204 L 62.829917,6.8288363 c 1.560294,-1.561412 1.560294,-4.093953 -0.0011,-5.6563583 z"
     style="fill:#ffffff;fill-opacity:1;stroke-width:0.141897" />
</svg>
