<?xml version="1.0" encoding="UTF-8" standalone="no"?>
<svg
   width="64"
   height="64"
   version="1.1"
   id="svg4"
   xmlns="http://www.w3.org/2000/svg"
   xmlns:svg="http://www.w3.org/2000/svg">
  <path
     id="path2"
     style="fill:#ffffff;fill-opacity:1;stroke-width:0.168712"
     d="m 61.68284,5.313288 -0.0014,6.748e-4 H 2.2374168 C 1.0386307,5.313946 0,6.2727926 0,7.5513628 V 56.449295 c 0,1.198786 0.95884664,2.237417 2.2374168,2.237417 H 61.762583 C 62.961369,58.686712 64,57.727866 64,56.449295 V 7.4703015 C 63.920256,6.2715155 62.961309,5.3132863 61.68284,5.313288 Z M 5.4330661,8.4301824 H 58.565944 c 1.198787,0 2.237416,0.9588466 2.237416,2.2374166 v 39.391054 l -0.08007,-0.0023 -11.425652,-19.015735 c -0.639268,-1.038628 -2.157025,-1.038628 -2.796277,0 L 37.392207,46.301178 22.69116,20.495097 c -0.639268,-1.118377 -2.157025,-1.118377 -2.796277,0 L 3.195651,49.738034 V 10.667599 c 0,-1.1987859 0.958845,-2.2374166 2.2374151,-2.2374166 z M 37.312794,12.744542 c -2.956348,0 -5.353325,2.396317 -5.353325,5.352664 0,2.957023 2.396977,5.353325 5.353325,5.353325 2.956347,0 5.353324,-2.396302 5.353324,-5.353325 0,-2.956516 -2.396977,-5.352664 -5.353324,-5.352664 z" />
</svg>
